Datenprojekte im R tidyverse
…
Tabelle 3

## # A tibble: 30 × 3
##    Kunde  Merkmal       value         
##    <chr>  <chr>         <chr>         
##  1 Lukas  Gericht       1             
##  2 Lukas  Beilage       5             
##  3 Lukas  Zufriedenheit eher zufrieden
##  4 Jasmin Gericht       4             
##  5 Jasmin Beilage       <NA>          
##  6 Jasmin Zufriedenheit sehr zufrieden
##  7 Hanna  Gericht       3             
##  8 Hanna  Beilage       5             
##  9 Hanna  Zufriedenheit sehr zufrieden
## 10 Leon   Gericht       1             
## # ℹ 20 more rows
…
Überführe das tbl_tidy-Objekt in ein Objekt
tbl_long im long Format. Aufgrund der unterschiedlichen
Objekttypen im tbl_tidy sind die Variablen “Datum” (Typ:
date) und “Wartezeit” (Typ: double) dabei
auszuschließen.

#|label: BABC to long
#|echo: true
tbl_long <- tbl_tidy %>%
                select(-c(Datum,Wartezeit)) %>% #Eliminieren von Datum/Wartezeit
                pivot_longer(-c(Kunde),names_to = 'Merkmal',values_to = "Merkmalswert")
tbl_long

## # A tibble: 30 × 3
##    Kunde  Merkmal       Merkmalswert  
##    <chr>  <chr>         <chr>         
##  1 Lukas  Gericht       1             
##  2 Lukas  Beilage       5             
##  3 Lukas  Zufriedenheit eher zufrieden
##  4 Jasmin Gericht       4             
##  5 Jasmin Beilage       <NA>          
##  6 Jasmin Zufriedenheit sehr zufrieden
##  7 Hanna  Gericht       3             
##  8 Hanna  Beilage       5             
##  9 Hanna  Zufriedenheit sehr zufrieden
## 10 Leon   Gericht       1             
## # ℹ 20 more rows
…
